{
  "__inputs": [
    {
      "name": "DS_PG_METRICS",
      "label": "PG metrics",
      "description": "",
      "type": "datasource",
      "pluginId": "postgres",
      "pluginName": "PostgreSQL"
    }
  ],
  "__elements": [],
  "__requires": [
    {
      "type": "grafana",
      "id": "grafana",
      "name": "Grafana",
      "version": "8.5.9"
    },
    {
      "type": "datasource",
      "id": "postgres",
      "name": "PostgreSQL",
      "version": "1.0.0"
    },
    {
      "type": "panel",
      "id": "timeseries",
      "name": "Time series",
      "version": ""
    }
  ],
  "annotations": {
    "list": [
      {
        "builtIn": 1,
        "datasource": {
          "type": "grafana",
          "uid": "-- Grafana --"
        },
        "enable": true,
        "hide": true,
        "iconColor": "rgba(0, 211, 255, 1)",
        "name": "Annotations & Alerts",
        "target": {
          "limit": 100,
          "matchAny": false,
          "tags": [],
          "type": "dashboard"
        },
        "type": "dashboard"
      }
    ]
  },
  "editable": false,
  "fiscalYearStartMonth": 0,
  "graphTooltip": 0,
  "id": null,
  "iteration": 1660397400000,
  "links": [],
  "liveNow": false,
  "panels": [
    {
      "collapsed": false,
      "gridPos": {
        "h": 1,
        "w": 24,
        "x": 0,
        "y": 0
      },
      "id": 2,
      "panels": [],
      "title": "Tuple statistics",
      "type": "row"
    },
    {
      "datasource": {
        "type": "postgres",
        "uid": "${DS_PG_METRICS}"
      },
      "description": "",
      "fieldConfig": {
        "defaults": {
          "color": {
            "mode": "palette-classic"
          },
          "custom": {
            "axisLabel": "",
            "axisPlacement": "auto",
            "barAlignment": 0,
            "drawStyle": "line",
            "fillOpacity": 20,
            "gradientMode": "none",
            "hideFrom": {
              "legend": false,
              "tooltip": false,
              "viz": false
            },
            "lineInterpolation": "linear",
            "lineWidth": 1,
            "pointSize": 5,
            "scaleDistribution": {
              "type": "linear"
            },
            "showPoints": "never",
            "spanNulls": true,
            "stacking": {
              "group": "A",
              "mode": "none"
            },
            "thresholdsStyle": {
              "mode": "off"
            }
          },
          "mappings": [],
          "thresholds": {
            "mode": "absolute",
            "steps": [
              {
                "color": "green",
                "value": null
              },
              {
                "color": "red",
                "value": 80
              }
            ]
          },
          "unit": "short"
        },
        "overrides": []
      },
      "gridPos": {
        "h": 10,
        "w": 8,
        "x": 0,
        "y": 1
      },
      "id": 4,
      "options": {
        "legend": {
          "calcs": [
            "mean",
            "max",
            "sum"
          ],
          "displayMode": "table",
          "placement": "bottom",
          "sortBy": "Total",
          "sortDesc": true
        },
        "tooltip": {
          "mode": "single",
          "sort": "none"
        }
      },
      "targets": [
        {
          "datasource": {
            "type": "postgres",
            "uid": "${DS_PG_METRICS}"
          },
          "format": "time_series",
          "group": [],
          "metricColumn": "none",
          "rawQuery": true,
          "rawSql": "select\n  $__timeGroup(time, $agg_interval),\n  table_full_name,\n  avg((i - i_lag) / extract(epoch from time - time_lag)) as \" \"\nfrom (\n  select\n    (data->>'n_tup_ins')::bigint as i, lag((data->>'n_tup_ins')::bigint) over w as i_lag,\n    (tag_data->>'table_full_name')::text as table_full_name,\n    time, lag(time) over w as time_lag\n  from table_stats\n  where dbname = '$dbname' and $__timeFilter(time)\n  window w as (partition by (tag_data->>'table_full_name')::text order by time)\n) x\nwhere i > i_lag and time > time_lag\ngroup by 1, 2\norder by 1",
          "refId": "A",
          "select": [
            [
              {
                "params": [
                  "value"
                ],
                "type": "column"
              }
            ]
          ],
          "timeColumn": "time",
          "where": [
            {
              "name": "$__timeFilter",
              "params": [],
              "type": "macro"
            }
          ]
        }
      ],
      "title": "INSERT (1s rate)",
      "type": "timeseries"
    },
    {
      "datasource": {
        "type": "postgres",
        "uid": "${DS_PG_METRICS}"
      },
      "description": "",
      "fieldConfig": {
        "defaults": {
          "color": {
            "mode": "palette-classic"
          },
          "custom": {
            "axisLabel": "",
            "axisPlacement": "auto",
            "barAlignment": 0,
            "drawStyle": "line",
            "fillOpacity": 20,
            "gradientMode": "none",
            "hideFrom": {
              "legend": false,
              "tooltip": false,
              "viz": false
            },
            "lineInterpolation": "linear",
            "lineWidth": 1,
            "pointSize": 5,
            "scaleDistribution": {
              "type": "linear"
            },
            "showPoints": "never",
            "spanNulls": true,
            "stacking": {
              "group": "A",
              "mode": "none"
            },
            "thresholdsStyle": {
              "mode": "off"
            }
          },
          "mappings": [],
          "thresholds": {
            "mode": "absolute",
            "steps": [
              {
                "color": "green",
                "value": null
              },
              {
                "color": "red",
                "value": 80
              }
            ]
          },
          "unit": "short"
        },
        "overrides": []
      },
      "gridPos": {
        "h": 10,
        "w": 8,
        "x": 8,
        "y": 1
      },
      "id": 5,
      "options": {
        "legend": {
          "calcs": [
            "mean",
            "max",
            "sum"
          ],
          "displayMode": "table",
          "placement": "bottom",
          "sortBy": "Total",
          "sortDesc": true
        },
        "tooltip": {
          "mode": "single",
          "sort": "none"
        }
      },
      "targets": [
        {
          "datasource": {
            "type": "postgres",
            "uid": "${DS_PG_METRICS}"
          },
          "format": "time_series",
          "group": [],
          "metricColumn": "none",
          "rawQuery": true,
          "rawSql": "select\n  $__timeGroup(time, $agg_interval),\n  table_full_name,\n  avg((u - u_lag) / extract(epoch from time - time_lag)) as \" \"\nfrom (\n  select\n    (data->>'n_tup_upd')::bigint as u, lag((data->>'n_tup_upd')::bigint) over w as u_lag,\n    (tag_data->>'table_full_name')::text as table_full_name,\n    time, lag(time) over w as time_lag\n  from table_stats\n  where dbname = '$dbname' and $__timeFilter(time)\n  window w as (partition by (tag_data->>'table_full_name')::text order by time)\n) x\nwhere u > u_lag and time > time_lag\ngroup by 1, 2\norder by 1",
          "refId": "A",
          "select": [
            [
              {
                "params": [
                  "value"
                ],
                "type": "column"
              }
            ]
          ],
          "timeColumn": "time",
          "where": [
            {
              "name": "$__timeFilter",
              "params": [],
              "type": "macro"
            }
          ]
        }
      ],
      "title": "UPDATE (1s rate)",
      "type": "timeseries"
    },
    {
      "datasource": {
        "type": "postgres",
        "uid": "${DS_PG_METRICS}"
      },
      "description": "",
      "fieldConfig": {
        "defaults": {
          "color": {
            "mode": "palette-classic"
          },
          "custom": {
            "axisLabel": "",
            "axisPlacement": "auto",
            "barAlignment": 0,
            "drawStyle": "line",
            "fillOpacity": 20,
            "gradientMode": "none",
            "hideFrom": {
              "legend": false,
              "tooltip": false,
              "viz": false
            },
            "lineInterpolation": "linear",
            "lineWidth": 1,
            "pointSize": 5,
            "scaleDistribution": {
              "type": "linear"
            },
            "showPoints": "never",
            "spanNulls": true,
            "stacking": {
              "group": "A",
              "mode": "none"
            },
            "thresholdsStyle": {
              "mode": "off"
            }
          },
          "mappings": [],
          "thresholds": {
            "mode": "absolute",
            "steps": [
              {
                "color": "green",
                "value": null
              },
              {
                "color": "red",
                "value": 80
              }
            ]
          },
          "unit": "short"
        },
        "overrides": []
      },
      "gridPos": {
        "h": 10,
        "w": 8,
        "x": 16,
        "y": 1
      },
      "id": 6,
      "options": {
        "legend": {
          "calcs": [
            "mean",
            "max",
            "sum"
          ],
          "displayMode": "table",
          "placement": "bottom",
          "sortBy": "Total",
          "sortDesc": true
        },
        "tooltip": {
          "mode": "single",
          "sort": "none"
        }
      },
      "targets": [
        {
          "datasource": {
            "type": "postgres",
            "uid": "${DS_PG_METRICS}"
          },
          "format": "time_series",
          "group": [],
          "metricColumn": "none",
          "rawQuery": true,
          "rawSql": "select\n  $__timeGroup(time, $agg_interval),\n  table_full_name,\n  avg((d - d_lag) / extract(epoch from time - time_lag)) as \" \"\nfrom (\n  select\n    (data->>'n_tup_del')::bigint as d, lag((data->>'n_tup_del')::bigint) over w as d_lag,\n    (tag_data->>'table_full_name')::text as table_full_name,\n    time, lag(time) over w as time_lag\n  from table_stats\n  where dbname = '$dbname' and $__timeFilter(time)\n  window w as (partition by (tag_data->>'table_full_name')::text order by time)\n) x\nwhere d > d_lag and time > time_lag\ngroup by 1, 2\norder by 1",
          "refId": "A",
          "select": [
            [
              {
                "params": [
                  "value"
                ],
                "type": "column"
              }
            ]
          ],
          "timeColumn": "time",
          "where": [
            {
              "name": "$__timeFilter",
              "params": [],
              "type": "macro"
            }
          ]
        }
      ],
      "title": "DELETE (1s rate)",
      "type": "timeseries"
    },
    {
      "datasource": {
        "type": "postgres",
        "uid": "${DS_PG_METRICS}"
      },
      "description": "Number of sequential scans initiated on this table",
      "fieldConfig": {
        "defaults": {
          "color": {
            "mode": "palette-classic"
          },
          "custom": {
            "axisLabel": "",
            "axisPlacement": "auto",
            "barAlignment": 0,
            "drawStyle": "bars",
            "fillOpacity": 100,
            "gradientMode": "opacity",
            "hideFrom": {
              "legend": false,
              "tooltip": false,
              "viz": false
            },
            "lineInterpolation": "linear",
            "lineWidth": 1,
            "pointSize": 5,
            "scaleDistribution": {
              "type": "linear"
            },
            "showPoints": "never",
            "spanNulls": true,
            "stacking": {
              "group": "A",
              "mode": "none"
            },
            "thresholdsStyle": {
              "mode": "off"
            }
          },
          "decimals": 1,
          "mappings": [],
          "thresholds": {
            "mode": "absolute",
            "steps": [
              {
                "color": "green",
                "value": null
              },
              {
                "color": "red",
                "value": 80
              }
            ]
          },
          "unit": "short"
        },
        "overrides": []
      },
      "gridPos": {
        "h": 8,
        "w": 12,
        "x": 0,
        "y": 11
      },
      "id": 8,
      "options": {
        "legend": {
          "calcs": [
            "mean",
            "max"
          ],
          "displayMode": "table",
          "placement": "right",
          "sortBy": "Mean",
          "sortDesc": true
        },
        "tooltip": {
          "mode": "single",
          "sort": "none"
        }
      },
      "targets": [
        {
          "datasource": {
            "type": "postgres",
            "uid": "${DS_PG_METRICS}"
          },
          "format": "time_series",
          "group": [],
          "metricColumn": "none",
          "rawQuery": true,
          "rawSql": "select\n  $__timeGroup(time, $agg_interval),\n  table_full_name,\n  avg((s - s_lag) / extract(epoch from time - time_lag)) as \" \"\nfrom (\n  select\n    (data->>'seq_scan')::bigint as s, lag((data->>'seq_scan')::bigint) over w as s_lag,\n    (tag_data->>'table_full_name')::text as table_full_name,\n    time, lag(time) over w as time_lag, dbname\n  from table_stats\n  where dbname = '$dbname' and $__timeFilter(time)\n  window w as (partition by (tag_data->>'table_full_name')::text order by time)\n) x\nwhere s > s_lag and time > time_lag\ngroup by 1, 2\norder by 1",
          "refId": "A",
          "select": [
            [
              {
                "params": [
                  "value"
                ],
                "type": "column"
              }
            ]
          ],
          "timeColumn": "time",
          "where": [
            {
              "name": "$__timeFilter",
              "params": [],
              "type": "macro"
            }
          ]
        }
      ],
      "title": "Sequential Scans (seq_scan) (1s rate)",
      "type": "timeseries"
    },
    {
      "datasource": {
        "type": "postgres",
        "uid": "${DS_PG_METRICS}"
      },
      "description": "Number of live rows fetched by sequential scans",
      "fieldConfig": {
        "defaults": {
          "color": {
            "mode": "palette-classic"
          },
          "custom": {
            "axisLabel": "",
            "axisPlacement": "auto",
            "barAlignment": 0,
            "drawStyle": "bars",
            "fillOpacity": 100,
            "gradientMode": "opacity",
            "hideFrom": {
              "legend": false,
              "tooltip": false,
              "viz": false
            },
            "lineInterpolation": "linear",
            "lineWidth": 1,
            "pointSize": 5,
            "scaleDistribution": {
              "type": "linear"
            },
            "showPoints": "never",
            "spanNulls": true,
            "stacking": {
              "group": "A",
              "mode": "none"
            },
            "thresholdsStyle": {
              "mode": "off"
            }
          },
          "decimals": 1,
          "mappings": [],
          "thresholds": {
            "mode": "absolute",
            "steps": [
              {
                "color": "green",
                "value": null
              },
              {
                "color": "red",
                "value": 80
              }
            ]
          },
          "unit": "short"
        },
        "overrides": []
      },
      "gridPos": {
        "h": 8,
        "w": 12,
        "x": 12,
        "y": 11
      },
      "id": 9,
      "options": {
        "legend": {
          "calcs": [
            "mean",
            "max"
          ],
          "displayMode": "table",
          "placement": "right",
          "sortBy": "Mean",
          "sortDesc": true
        },
        "tooltip": {
          "mode": "single",
          "sort": "none"
        }
      },
      "targets": [
        {
          "datasource": {
            "type": "postgres",
            "uid": "${DS_PG_METRICS}"
          },
          "format": "time_series",
          "group": [],
          "metricColumn": "none",
          "rawQuery": true,
          "rawSql": "select\n  $__timeGroup(time, $agg_interval),\n  table_full_name,\n  avg((s - s_lag) / extract(epoch from time - time_lag)) as \" \"\nfrom (\n  select\n    (data->>'seq_tup_read')::bigint as s, lag((data->>'seq_tup_read')::bigint) over w as s_lag,\n    (tag_data->>'table_full_name')::text as table_full_name,\n    time, lag(time) over w as time_lag\n  from table_stats\n  where dbname = '$dbname' and $__timeFilter(time)\n  window w as (partition by (tag_data->>'table_full_name')::text order by time)\n) x\nwhere s > s_lag and time > time_lag\ngroup by 1, 2\norder by 1",
          "refId": "A",
          "select": [
            [
              {
                "params": [
                  "value"
                ],
                "type": "column"
              }
            ]
          ],
          "timeColumn": "time",
          "where": [
            {
              "name": "$__timeFilter",
              "params": [],
              "type": "macro"
            }
          ]
        }
      ],
      "title": "Sequential Reads (seq_tup_read) (1s rate)",
      "type": "timeseries"
    },
    {
      "datasource": {
        "type": "postgres",
        "uid": "${DS_PG_METRICS}"
      },
      "description": "Number of index scans initiated on this table",
      "fieldConfig": {
        "defaults": {
          "color": {
            "mode": "palette-classic"
          },
          "custom": {
            "axisLabel": "",
            "axisPlacement": "auto",
            "barAlignment": 0,
            "drawStyle": "bars",
            "fillOpacity": 100,
            "gradientMode": "opacity",
            "hideFrom": {
              "legend": false,
              "tooltip": false,
              "viz": false
            },
            "lineInterpolation": "linear",
            "lineWidth": 1,
            "pointSize": 5,
            "scaleDistribution": {
              "type": "linear"
            },
            "showPoints": "never",
            "spanNulls": true,
            "stacking": {
              "group": "A",
              "mode": "none"
            },
            "thresholdsStyle": {
              "mode": "off"
            }
          },
          "decimals": 1,
          "mappings": [],
          "thresholds": {
            "mode": "absolute",
            "steps": [
              {
                "color": "green",
                "value": null
              },
              {
                "color": "red",
                "value": 80
              }
            ]
          },
          "unit": "short"
        },
        "overrides": []
      },
      "gridPos": {
        "h": 8,
        "w": 12,
        "x": 0,
        "y": 19
      },
      "id": 10,
      "options": {
        "legend": {
          "calcs": [
            "mean",
            "max"
          ],
          "displayMode": "table",
          "placement": "right",
          "sortBy": "Mean",
          "sortDesc": true
        },
        "tooltip": {
          "mode": "single",
          "sort": "none"
        }
      },
      "targets": [
        {
          "datasource": {
            "type": "postgres",
            "uid": "${DS_PG_METRICS}"
          },
          "format": "time_series",
          "group": [],
          "metricColumn": "none",
          "rawQuery": true,
          "rawSql": "select\n  $__timeGroup(time, $agg_interval),\n  table_full_name,\n  avg((s - s_lag) / extract(epoch from time - time_lag)) as \" \"\nfrom (\n  select\n    (data->>'idx_scan')::bigint as s, lag((data->>'idx_scan')::bigint) over w as s_lag,\n    (tag_data->>'table_full_name')::text as table_full_name,\n    time, lag(time) over w as time_lag\n  from table_stats\n  where dbname = '$dbname' and $__timeFilter(time)\n  window w as (partition by (tag_data->>'table_full_name')::text order by time)\n) x\nwhere s > s_lag and time > time_lag\ngroup by 1, 2\norder by 1",
          "refId": "A",
          "select": [
            [
              {
                "params": [
                  "value"
                ],
                "type": "column"
              }
            ]
          ],
          "timeColumn": "time",
          "where": [
            {
              "name": "$__timeFilter",
              "params": [],
              "type": "macro"
            }
          ]
        }
      ],
      "title": "Index Scans (idx_scan) (1s rate)",
      "type": "timeseries"
    },
    {
      "datasource": {
        "type": "postgres",
        "uid": "${DS_PG_METRICS}"
      },
      "description": "Number of live rows fetched by index scans",
      "fieldConfig": {
        "defaults": {
          "color": {
            "mode": "palette-classic"
          },
          "custom": {
            "axisLabel": "",
            "axisPlacement": "auto",
            "barAlignment": 0,
            "drawStyle": "bars",
            "fillOpacity": 100,
            "gradientMode": "opacity",
            "hideFrom": {
              "legend": false,
              "tooltip": false,
              "viz": false
            },
            "lineInterpolation": "linear",
            "lineWidth": 1,
            "pointSize": 5,
            "scaleDistribution": {
              "type": "linear"
            },
            "showPoints": "never",
            "spanNulls": true,
            "stacking": {
              "group": "A",
              "mode": "none"
            },
            "thresholdsStyle": {
              "mode": "off"
            }
          },
          "decimals": 1,
          "mappings": [],
          "thresholds": {
            "mode": "absolute",
            "steps": [
              {
                "color": "green",
                "value": null
              },
              {
                "color": "red",
                "value": 80
              }
            ]
          },
          "unit": "short"
        },
        "overrides": []
      },
      "gridPos": {
        "h": 8,
        "w": 12,
        "x": 12,
        "y": 19
      },
      "id": 11,
      "options": {
        "legend": {
          "calcs": [
            "mean",
            "max"
          ],
          "displayMode": "table",
          "placement": "right",
          "sortBy": "Mean",
          "sortDesc": true
        },
        "tooltip": {
          "mode": "single",
          "sort": "none"
        }
      },
      "targets": [
        {
          "datasource": {
            "type": "postgres",
            "uid": "${DS_PG_METRICS}"
          },
          "format": "time_series",
          "group": [],
          "metricColumn": "none",
          "rawQuery": true,
          "rawSql": "select\n  $__timeGroup(time, $agg_interval),\n  table_full_name,\n  avg((f - f_lag) / extract(epoch from time - time_lag)) as \" \"\nfrom (\n  select\n    (data->>'idx_tup_fetch')::bigint as f, lag((data->>'idx_tup_fetch')::bigint) over w as f_lag,\n    (tag_data->>'table_full_name')::text as table_full_name,\n    time, lag(time) over w as time_lag\n  from table_stats\n  where dbname = '$dbname' and $__timeFilter(time)\n  window w as (partition by (tag_data->>'table_full_name')::text order by time)\n) x\nwhere f > f_lag and time > time_lag\ngroup by 1, 2\norder by 1",
          "refId": "A",
          "select": [
            [
              {
                "params": [
                  "value"
                ],
                "type": "column"
              }
            ]
          ],
          "timeColumn": "time",
          "where": [
            {
              "name": "$__timeFilter",
              "params": [],
              "type": "macro"
            }
          ]
        }
      ],
      "title": "Rows fetched by Index Scans (idx_tup_fetch) (1s rate)",
      "type": "timeseries"
    },
    {
      "datasource": {
        "type": "postgres",
        "uid": "${DS_PG_METRICS}"
      },
      "description": "Estimated number of rows in the table. Based on statistics.\n\n(reltuples from pg_class)",
      "fieldConfig": {
        "defaults": {
          "color": {
            "mode": "palette-classic"
          },
          "custom": {
            "axisLabel": "",
            "axisPlacement": "auto",
            "barAlignment": 0,
            "drawStyle": "line",
            "fillOpacity": 0,
            "gradientMode": "none",
            "hideFrom": {
              "legend": false,
              "tooltip": false,
              "viz": false
            },
            "lineInterpolation": "linear",
            "lineWidth": 1,
            "pointSize": 5,
            "scaleDistribution": {
              "type": "linear"
            },
            "showPoints": "never",
            "spanNulls": true,
            "stacking": {
              "group": "A",
              "mode": "none"
            },
            "thresholdsStyle": {
              "mode": "off"
            }
          },
          "decimals": 1,
          "mappings": [],
          "thresholds": {
            "mode": "absolute",
            "steps": [
              {
                "color": "green",
                "value": null
              },
              {
                "color": "red",
                "value": 80
              }
            ]
          },
          "unit": "short"
        },
        "overrides": []
      },
      "gridPos": {
        "h": 8,
        "w": 12,
        "x": 0,
        "y": 27
      },
      "id": 12,
      "options": {
        "legend": {
          "calcs": [
            "lastNotNull"
          ],
          "displayMode": "table",
          "placement": "right",
          "sortBy": "Last *",
          "sortDesc": true
        },
        "tooltip": {
          "mode": "single",
          "sort": "none"
        }
      },
      "targets": [
        {
          "datasource": {
            "type": "postgres",
            "uid": "${DS_PG_METRICS}"
          },
          "format": "time_series",
          "group": [],
          "metricColumn": "none",
          "rawQuery": true,
          "rawSql": "select\n  $__timeGroup(time, $agg_interval),\n  (tag_data->>'table_full_name')::text as table_full_name,\n  avg((data->>'row_count')::bigint) as \" \"\nfrom table_rows\nwhere dbname = '$dbname' and $__timeFilter(time)\n  and (data->>'row_count')::bigint > 0\ngroup by 1, 2\norder by 1",
          "refId": "A",
          "select": [
            [
              {
                "params": [
                  "value"
                ],
                "type": "column"
              }
            ]
          ],
          "timeColumn": "time",
          "where": [
            {
              "name": "$__timeFilter",
              "params": [],
              "type": "macro"
            }
          ]
        }
      ],
      "title": "Rows Count (Estimated)",
      "type": "timeseries"
    },
    {
      "datasource": {
        "type": "postgres",
        "uid": "${DS_PG_METRICS}"
      },
      "description": "Estimated number of dead rows",
      "fieldConfig": {
        "defaults": {
          "color": {
            "mode": "palette-classic"
          },
          "custom": {
            "axisLabel": "",
            "axisPlacement": "auto",
            "barAlignment": 0,
            "drawStyle": "line",
            "fillOpacity": 0,
            "gradientMode": "none",
            "hideFrom": {
              "legend": false,
              "tooltip": false,
              "viz": false
            },
            "lineInterpolation": "linear",
            "lineWidth": 1,
            "pointSize": 5,
            "scaleDistribution": {
              "type": "linear"
            },
            "showPoints": "never",
            "spanNulls": true,
            "stacking": {
              "group": "A",
              "mode": "none"
            },
            "thresholdsStyle": {
              "mode": "off"
            }
          },
          "decimals": 1,
          "mappings": [],
          "thresholds": {
            "mode": "absolute",
            "steps": [
              {
                "color": "green",
                "value": null
              },
              {
                "color": "red",
                "value": 80
              }
            ]
          },
          "unit": "short"
        },
        "overrides": []
      },
      "gridPos": {
        "h": 8,
        "w": 12,
        "x": 12,
        "y": 27
      },
      "id": 13,
      "options": {
        "legend": {
          "calcs": [
            "max",
            "lastNotNull"
          ],
          "displayMode": "table",
          "placement": "right",
          "sortBy": "Last *",
          "sortDesc": true
        },
        "tooltip": {
          "mode": "single",
          "sort": "none"
        }
      },
      "targets": [
        {
          "datasource": {
            "type": "postgres",
            "uid": "${DS_PG_METRICS}"
          },
          "format": "time_series",
          "group": [],
          "metricColumn": "none",
          "rawQuery": true,
          "rawSql": "select\n  $__timeGroup(time, $agg_interval),\n  (tag_data->>'table_full_name')::text as table_full_name,\n  avg((data->>'n_dead_tup')::bigint) as \" \"\nfrom table_stats\nwhere dbname = '$dbname' and $__timeFilter(time)\n  and (data->>'n_dead_tup')::bigint > 0\ngroup by 1, 2\norder by 1",
          "refId": "A",
          "select": [
            [
              {
                "params": [
                  "value"
                ],
                "type": "column"
              }
            ]
          ],
          "timeColumn": "time",
          "where": [
            {
              "name": "$__timeFilter",
              "params": [],
              "type": "macro"
            }
          ]
        }
      ],
      "title": "Dead tuples (n_dead_tup)",
      "type": "timeseries"
    },
    {
      "collapsed": true,
      "gridPos": {
        "h": 1,
        "w": 24,
        "x": 0,
        "y": 35
      },
      "id": 15,
      "panels": [
        {
          "datasource": {
            "type": "postgres",
            "uid": "${DS_PG_METRICS}"
          },
          "description": "Including manual VACUUM and AUTOVACUUM\n\nextract(epoch from now() - greatest(last_vacuum, last_autovacuum)) as seconds_since_last_vacuum",
          "fieldConfig": {
            "defaults": {
              "color": {
                "mode": "palette-classic"
              },
              "custom": {
                "axisLabel": "",
                "axisPlacement": "auto",
                "barAlignment": 0,
                "drawStyle": "line",
                "fillOpacity": 0,
                "gradientMode": "none",
                "hideFrom": {
                  "legend": false,
                  "tooltip": false,
                  "viz": false
                },
                "lineInterpolation": "linear",
                "lineWidth": 1,
                "pointSize": 5,
                "scaleDistribution": {
                  "type": "linear"
                },
                "showPoints": "never",
                "spanNulls": true,
                "stacking": {
                  "group": "A",
                  "mode": "none"
                },
                "thresholdsStyle": {
                  "mode": "off"
                }
              },
              "decimals": 1,
              "mappings": [],
              "thresholds": {
                "mode": "absolute",
                "steps": [
                  {
                    "color": "green",
                    "value": null
                  },
                  {
                    "color": "red",
                    "value": 80
                  }
                ]
              },
              "unit": "s"
            },
            "overrides": []
          },
          "gridPos": {
            "h": 8,
            "w": 12,
            "x": 0,
            "y": 36
          },
          "id": 18,
          "options": {
            "legend": {
              "calcs": [
                "lastNotNull"
              ],
              "displayMode": "table",
              "placement": "right",
              "sortBy": "Last *",
              "sortDesc": true
            },
            "tooltip": {
              "mode": "single",
              "sort": "none"
            }
          },
          "targets": [
            {
              "datasource": {
                "type": "postgres",
                "uid": "${DS_PG_METRICS}"
              },
              "format": "time_series",
              "group": [],
              "metricColumn": "none",
              "rawQuery": true,
              "rawSql": "select\n  $__timeGroup(time, $agg_interval),\n  (tag_data->>'table_full_name')::text as table_full_name,\n  avg((data->>'seconds_since_last_vacuum')::bigint) as \" \"\nfrom table_stats\nwhere dbname = '$dbname' and $__timeFilter(time)\n  and (data->>'seconds_since_last_vacuum')::bigint > 0\ngroup by 1, 2\norder by 1",
              "refId": "A",
              "select": [
                [
                  {
                    "params": [
                      "value"
                    ],
                    "type": "column"
                  }
                ]
              ],
              "timeColumn": "time",
              "where": [
                {
                  "name": "$__timeFilter",
                  "params": [],
                  "type": "macro"
                }
              ]
            }
          ],
          "title": "Time since last VACUUM",
          "type": "timeseries"
        },
        {
          "datasource": {
            "type": "postgres",
            "uid": "${DS_PG_METRICS}"
          },
          "description": "Including manual ANALYZE and AUTOANALYZE\n\nextract(epoch from now() - greatest(last_analyze, last_autoanalyze)) as seconds_since_last_analyze",
          "fieldConfig": {
            "defaults": {
              "color": {
                "mode": "palette-classic"
              },
              "custom": {
                "axisLabel": "",
                "axisPlacement": "auto",
                "barAlignment": 0,
                "drawStyle": "line",
                "fillOpacity": 0,
                "gradientMode": "none",
                "hideFrom": {
                  "legend": false,
                  "tooltip": false,
                  "viz": false
                },
                "lineInterpolation": "linear",
                "lineWidth": 1,
                "pointSize": 5,
                "scaleDistribution": {
                  "type": "linear"
                },
                "showPoints": "never",
                "spanNulls": true,
                "stacking": {
                  "group": "A",
                  "mode": "none"
                },
                "thresholdsStyle": {
                  "mode": "off"
                }
              },
              "decimals": 1,
              "mappings": [],
              "thresholds": {
                "mode": "absolute",
                "steps": [
                  {
                    "color": "green",
                    "value": null
                  },
                  {
                    "color": "red",
                    "value": 80
                  }
                ]
              },
              "unit": "s"
            },
            "overrides": []
          },
          "gridPos": {
            "h": 8,
            "w": 12,
            "x": 12,
            "y": 36
          },
          "id": 19,
          "options": {
            "legend": {
              "calcs": [
                "lastNotNull"
              ],
              "displayMode": "table",
              "placement": "right",
              "sortBy": "Last *",
              "sortDesc": true
            },
            "tooltip": {
              "mode": "single",
              "sort": "none"
            }
          },
          "targets": [
            {
              "datasource": {
                "type": "postgres",
                "uid": "${DS_PG_METRICS}"
              },
              "format": "time_series",
              "group": [],
              "metricColumn": "none",
              "rawQuery": true,
              "rawSql": "select\n  $__timeGroup(time, $agg_interval),\n  (tag_data->>'table_full_name')::text as table_full_name,\n  avg((data->>'seconds_since_last_analyze')::bigint) as \" \"\nfrom table_stats\nwhere dbname = '$dbname' and $__timeFilter(time)\n  and (data->>'seconds_since_last_analyze')::bigint > 0\ngroup by 1, 2\norder by 1",
              "refId": "A",
              "select": [
                [
                  {
                    "params": [
                      "value"
                    ],
                    "type": "column"
                  }
                ]
              ],
              "timeColumn": "time",
              "where": [
                {
                  "name": "$__timeFilter",
                  "params": [],
                  "type": "macro"
                }
              ]
            }
          ],
          "title": "Time since last ANALYZE",
          "type": "timeseries"
        },
        {
          "datasource": {
            "type": "postgres",
            "uid": "${DS_PG_METRICS}"
          },
          "description": "",
          "fieldConfig": {
            "defaults": {
              "color": {
                "mode": "palette-classic"
              },
              "custom": {
                "axisLabel": "",
                "axisPlacement": "auto",
                "barAlignment": 0,
                "drawStyle": "line",
                "fillOpacity": 0,
                "gradientMode": "none",
                "hideFrom": {
                  "legend": false,
                  "tooltip": false,
                  "viz": false
                },
                "lineInterpolation": "linear",
                "lineWidth": 1,
                "pointSize": 5,
                "scaleDistribution": {
                  "type": "linear"
                },
                "showPoints": "never",
                "spanNulls": true,
                "stacking": {
                  "group": "A",
                  "mode": "none"
                },
                "thresholdsStyle": {
                  "mode": "off"
                }
              },
              "decimals": 2,
              "mappings": [],
              "thresholds": {
                "mode": "absolute",
                "steps": [
                  {
                    "color": "green",
                    "value": null
                  },
                  {
                    "color": "red",
                    "value": 80
                  }
                ]
              },
              "unit": "short"
            },
            "overrides": []
          },
          "gridPos": {
            "h": 8,
            "w": 12,
            "x": 0,
            "y": 44
          },
          "id": 20,
          "options": {
            "legend": {
              "calcs": [
                "lastNotNull"
              ],
              "displayMode": "table",
              "placement": "right",
              "sortBy": "Last *",
              "sortDesc": true
            },
            "tooltip": {
              "mode": "single",
              "sort": "none"
            }
          },
          "targets": [
            {
              "datasource": {
                "type": "postgres",
                "uid": "${DS_PG_METRICS}"
              },
              "format": "time_series",
              "group": [],
              "metricColumn": "none",
              "rawQuery": true,
              "rawSql": "select\n  $__timeGroup(time, $agg_interval),\n  (tag_data->>'table_full_name')::text as table_full_name,\n  avg((data->>'vacuum_count')::bigint) as \" \"\nfrom table_stats\nwhere dbname = '$dbname' and $__timeFilter(time)\n  and (data->>'vacuum_count')::bigint > 0\ngroup by 1, 2\norder by 1",
              "refId": "A",
              "select": [
                [
                  {
                    "params": [
                      "value"
                    ],
                    "type": "column"
                  }
                ]
              ],
              "timeColumn": "time",
              "where": [
                {
                  "name": "$__timeFilter",
                  "params": [],
                  "type": "macro"
                }
              ]
            }
          ],
          "title": "VACUUM Count",
          "type": "timeseries"
        },
        {
          "datasource": {
            "type": "postgres",
            "uid": "${DS_PG_METRICS}"
          },
          "description": "",
          "fieldConfig": {
            "defaults": {
              "color": {
                "mode": "palette-classic"
              },
              "custom": {
                "axisLabel": "",
                "axisPlacement": "auto",
                "barAlignment": 0,
                "drawStyle": "line",
                "fillOpacity": 0,
                "gradientMode": "none",
                "hideFrom": {
                  "legend": false,
                  "tooltip": false,
                  "viz": false
                },
                "lineInterpolation": "linear",
                "lineWidth": 1,
                "pointSize": 5,
                "scaleDistribution": {
                  "type": "linear"
                },
                "showPoints": "never",
                "spanNulls": true,
                "stacking": {
                  "group": "A",
                  "mode": "none"
                },
                "thresholdsStyle": {
                  "mode": "off"
                }
              },
              "decimals": 2,
              "mappings": [],
              "thresholds": {
                "mode": "absolute",
                "steps": [
                  {
                    "color": "green",
                    "value": null
                  },
                  {
                    "color": "red",
                    "value": 80
                  }
                ]
              },
              "unit": "short"
            },
            "overrides": []
          },
          "gridPos": {
            "h": 8,
            "w": 12,
            "x": 12,
            "y": 44
          },
          "id": 21,
          "options": {
            "legend": {
              "calcs": [
                "lastNotNull"
              ],
              "displayMode": "table",
              "placement": "right",
              "sortBy": "Last *",
              "sortDesc": true
            },
            "tooltip": {
              "mode": "single",
              "sort": "none"
            }
          },
          "targets": [
            {
              "datasource": {
                "type": "postgres",
                "uid": "${DS_PG_METRICS}"
              },
              "format": "time_series",
              "group": [],
              "metricColumn": "none",
              "rawQuery": true,
              "rawSql": "select\n  $__timeGroup(time, $agg_interval),\n  (tag_data->>'table_full_name')::text as table_full_name,\n  avg((data->>'analyze_count')::bigint) as \" \"\nfrom table_stats\nwhere dbname = '$dbname' and $__timeFilter(time)\n  and (data->>'analyze_count')::bigint > 0\ngroup by 1, 2\norder by 1",
              "refId": "A",
              "select": [
                [
                  {
                    "params": [
                      "value"
                    ],
                    "type": "column"
                  }
                ]
              ],
              "timeColumn": "time",
              "where": [
                {
                  "name": "$__timeFilter",
                  "params": [],
                  "type": "macro"
                }
              ]
            }
          ],
          "title": "ANALYZE Count",
          "type": "timeseries"
        },
        {
          "datasource": {
            "type": "postgres",
            "uid": "${DS_PG_METRICS}"
          },
          "description": "",
          "fieldConfig": {
            "defaults": {
              "color": {
                "mode": "palette-classic"
              },
              "custom": {
                "axisLabel": "",
                "axisPlacement": "auto",
                "barAlignment": 0,
                "drawStyle": "line",
                "fillOpacity": 0,
                "gradientMode": "none",
                "hideFrom": {
                  "legend": false,
                  "tooltip": false,
                  "viz": false
                },
                "lineInterpolation": "linear",
                "lineWidth": 1,
                "pointSize": 5,
                "scaleDistribution": {
                  "type": "linear"
                },
                "showPoints": "never",
                "spanNulls": true,
                "stacking": {
                  "group": "A",
                  "mode": "none"
                },
                "thresholdsStyle": {
                  "mode": "off"
                }
              },
              "decimals": 2,
              "mappings": [],
              "thresholds": {
                "mode": "absolute",
                "steps": [
                  {
                    "color": "green",
                    "value": null
                  },
                  {
                    "color": "red",
                    "value": 80
                  }
                ]
              },
              "unit": "short"
            },
            "overrides": []
          },
          "gridPos": {
            "h": 8,
            "w": 12,
            "x": 0,
            "y": 52
          },
          "id": 22,
          "options": {
            "legend": {
              "calcs": [
                "lastNotNull"
              ],
              "displayMode": "table",
              "placement": "right",
              "sortBy": "Last *",
              "sortDesc": true
            },
            "tooltip": {
              "mode": "single",
              "sort": "none"
            }
          },
          "targets": [
            {
              "datasource": {
                "type": "postgres",
                "uid": "${DS_PG_METRICS}"
              },
              "format": "time_series",
              "group": [],
              "metricColumn": "none",
              "rawQuery": true,
              "rawSql": "select\n  $__timeGroup(time, $agg_interval),\n  (tag_data->>'table_full_name')::text as table_full_name,\n  avg((data->>'autovacuum_count')::bigint) as \" \"\nfrom table_stats\nwhere dbname = '$dbname' and $__timeFilter(time)\n  and (data->>'autovacuum_count')::bigint > 0\ngroup by 1, 2\norder by 1",
              "refId": "A",
              "select": [
                [
                  {
                    "params": [
                      "value"
                    ],
                    "type": "column"
                  }
                ]
              ],
              "timeColumn": "time",
              "where": [
                {
                  "name": "$__timeFilter",
                  "params": [],
                  "type": "macro"
                }
              ]
            }
          ],
          "title": "AUTOVACUUM Count",
          "type": "timeseries"
        },
        {
          "datasource": {
            "type": "postgres",
            "uid": "${DS_PG_METRICS}"
          },
          "description": "",
          "fieldConfig": {
            "defaults": {
              "color": {
                "mode": "palette-classic"
              },
              "custom": {
                "axisLabel": "",
                "axisPlacement": "auto",
                "barAlignment": 0,
                "drawStyle": "line",
                "fillOpacity": 0,
                "gradientMode": "none",
                "hideFrom": {
                  "legend": false,
                  "tooltip": false,
                  "viz": false
                },
                "lineInterpolation": "linear",
                "lineWidth": 1,
                "pointSize": 5,
                "scaleDistribution": {
                  "type": "linear"
                },
                "showPoints": "never",
                "spanNulls": true,
                "stacking": {
                  "group": "A",
                  "mode": "none"
                },
                "thresholdsStyle": {
                  "mode": "off"
                }
              },
              "decimals": 2,
              "mappings": [],
              "thresholds": {
                "mode": "absolute",
                "steps": [
                  {
                    "color": "green",
                    "value": null
                  },
                  {
                    "color": "red",
                    "value": 80
                  }
                ]
              },
              "unit": "short"
            },
            "overrides": []
          },
          "gridPos": {
            "h": 8,
            "w": 12,
            "x": 12,
            "y": 52
          },
          "id": 23,
          "options": {
            "legend": {
              "calcs": [
                "lastNotNull"
              ],
              "displayMode": "table",
              "placement": "right",
              "sortBy": "Last *",
              "sortDesc": true
            },
            "tooltip": {
              "mode": "single",
              "sort": "none"
            }
          },
          "targets": [
            {
              "datasource": {
                "type": "postgres",
                "uid": "${DS_PG_METRICS}"
              },
              "format": "time_series",
              "group": [],
              "metricColumn": "none",
              "rawQuery": true,
              "rawSql": "select\n  $__timeGroup(time, $agg_interval),\n  (tag_data->>'table_full_name')::text as table_full_name,\n  avg((data->>'autoanalyze_count')::bigint) as \" \"\nfrom table_stats\nwhere dbname = '$dbname' and $__timeFilter(time)\n  and (data->>'autoanalyze_count')::bigint > 0\ngroup by 1, 2\norder by 1",
              "refId": "A",
              "select": [
                [
                  {
                    "params": [
                      "value"
                    ],
                    "type": "column"
                  }
                ]
              ],
              "timeColumn": "time",
              "where": [
                {
                  "name": "$__timeFilter",
                  "params": [],
                  "type": "macro"
                }
              ]
            }
          ],
          "title": "AUTOANALYZE Count",
          "type": "timeseries"
        }
      ],
      "title": "VACUUM, ANALYZE statistics",
      "type": "row"
    },
    {
      "collapsed": true,
      "gridPos": {
        "h": 1,
        "w": 24,
        "x": 0,
        "y": 36
      },
      "id": 25,
      "panels": [
        {
          "datasource": {
            "type": "postgres",
            "uid": "${DS_PG_METRICS}"
          },
          "fieldConfig": {
            "defaults": {
              "color": {
                "mode": "palette-classic"
              },
              "custom": {
                "axisLabel": "",
                "axisPlacement": "auto",
                "barAlignment": 0,
                "drawStyle": "line",
                "fillOpacity": 0,
                "gradientMode": "none",
                "hideFrom": {
                  "legend": false,
                  "tooltip": false,
                  "viz": false
                },
                "lineInterpolation": "linear",
                "lineWidth": 1,
                "pointSize": 5,
                "scaleDistribution": {
                  "type": "linear"
                },
                "showPoints": "never",
                "spanNulls": true,
                "stacking": {
                  "group": "A",
                  "mode": "none"
                },
                "thresholdsStyle": {
                  "mode": "off"
                }
              },
              "mappings": [],
              "thresholds": {
                "mode": "absolute",
                "steps": [
                  {
                    "color": "green",
                    "value": null
                  },
                  {
                    "color": "red",
                    "value": 80
                  }
                ]
              },
              "unit": "bytes"
            },
            "overrides": []
          },
          "gridPos": {
            "h": 8,
            "w": 24,
            "x": 0,
            "y": 37
          },
          "id": 27,
          "options": {
            "legend": {
              "calcs": [
                "lastNotNull"
              ],
              "displayMode": "table",
              "placement": "right",
              "sortBy": "Last *",
              "sortDesc": true
            },
            "tooltip": {
              "mode": "single",
              "sort": "none"
            }
          },
          "targets": [
            {
              "datasource": {
                "type": "postgres",
                "uid": "${DS_PG_METRICS}"
              },
              "format": "time_series",
              "group": [],
              "metricColumn": "none",
              "rawQuery": true,
              "rawSql": "select\n  $__timeGroup(time, $agg_interval),\n  (tag_data->>'table_full_name')::text as table_full_name,\n  avg((data->>'table_size_b')::bigint) as \" \"\nfrom table_stats\nwhere dbname = '$dbname' and $__timeFilter(time)\n  and (data->>'table_size_b')::bigint > 0\ngroup by 1, 2\norder by 1",
              "refId": "A",
              "select": [
                [
                  {
                    "params": [
                      "value"
                    ],
                    "type": "column"
                  }
                ]
              ],
              "timeColumn": "time",
              "where": [
                {
                  "name": "$__timeFilter",
                  "params": [],
                  "type": "macro"
                }
              ]
            }
          ],
          "title": "Table Size",
          "type": "timeseries"
        },
        {
          "datasource": {
            "type": "postgres",
            "uid": "${DS_PG_METRICS}"
          },
          "description": "",
          "fieldConfig": {
            "defaults": {
              "color": {
                "mode": "palette-classic"
              },
              "custom": {
                "axisLabel": "",
                "axisPlacement": "auto",
                "barAlignment": 0,
                "drawStyle": "line",
                "fillOpacity": 0,
                "gradientMode": "none",
                "hideFrom": {
                  "legend": false,
                  "tooltip": false,
                  "viz": false
                },
                "lineInterpolation": "linear",
                "lineWidth": 1,
                "pointSize": 5,
                "scaleDistribution": {
                  "type": "linear"
                },
                "showPoints": "never",
                "spanNulls": true,
                "stacking": {
                  "group": "A",
                  "mode": "none"
                },
                "thresholdsStyle": {
                  "mode": "off"
                }
              },
              "mappings": [],
              "thresholds": {
                "mode": "absolute",
                "steps": [
                  {
                    "color": "green",
                    "value": null
                  },
                  {
                    "color": "red",
                    "value": 80
                  }
                ]
              },
              "unit": "bytes"
            },
            "overrides": []
          },
          "gridPos": {
            "h": 8,
            "w": 24,
            "x": 0,
            "y": 45
          },
          "id": 28,
          "options": {
            "legend": {
              "calcs": [
                "lastNotNull"
              ],
              "displayMode": "table",
              "placement": "right",
              "sortBy": "Last *",
              "sortDesc": true
            },
            "tooltip": {
              "mode": "single",
              "sort": "none"
            }
          },
          "targets": [
            {
              "datasource": {
                "type": "postgres",
                "uid": "${DS_PG_METRICS}"
              },
              "format": "time_series",
              "group": [],
              "metricColumn": "none",
              "rawQuery": true,
              "rawSql": "select\n  $__timeGroup(time, $agg_interval),\n  '[' || (tag_data->>'table_full_name')::text || '] - ' || (tag_data->>'index_full_name')::text as table_index_full_name,\n  avg((data->>'index_size_b')::bigint) as \" \"\nfrom index_stats\nwhere dbname = '$dbname' and $__timeFilter(time)\n  and (data->>'index_size_b')::bigint > 0\ngroup by 1, 2\norder by 1",
              "refId": "A",
              "select": [
                [
                  {
                    "params": [
                      "value"
                    ],
                    "type": "column"
                  }
                ]
              ],
              "timeColumn": "time",
              "where": [
                {
                  "name": "$__timeFilter",
                  "params": [],
                  "type": "macro"
                }
              ]
            }
          ],
          "title": "Index Size",
          "type": "timeseries"
        },
        {
          "datasource": {
            "type": "postgres",
            "uid": "${DS_PG_METRICS}"
          },
          "fieldConfig": {
            "defaults": {
              "color": {
                "mode": "palette-classic"
              },
              "custom": {
                "axisLabel": "",
                "axisPlacement": "auto",
                "barAlignment": 0,
                "drawStyle": "line",
                "fillOpacity": 0,
                "gradientMode": "none",
                "hideFrom": {
                  "legend": false,
                  "tooltip": false,
                  "viz": false
                },
                "lineInterpolation": "linear",
                "lineWidth": 1,
                "pointSize": 5,
                "scaleDistribution": {
                  "type": "linear"
                },
                "showPoints": "never",
                "spanNulls": true,
                "stacking": {
                  "group": "A",
                  "mode": "none"
                },
                "thresholdsStyle": {
                  "mode": "off"
                }
              },
              "mappings": [],
              "thresholds": {
                "mode": "absolute",
                "steps": [
                  {
                    "color": "green",
                    "value": null
                  },
                  {
                    "color": "red",
                    "value": 80
                  }
                ]
              },
              "unit": "bytes"
            },
            "overrides": []
          },
          "gridPos": {
            "h": 8,
            "w": 24,
            "x": 0,
            "y": 53
          },
          "id": 29,
          "options": {
            "legend": {
              "calcs": [
                "lastNotNull"
              ],
              "displayMode": "table",
              "placement": "right",
              "sortBy": "Last *",
              "sortDesc": true
            },
            "tooltip": {
              "mode": "single",
              "sort": "none"
            }
          },
          "targets": [
            {
              "datasource": {
                "type": "postgres",
                "uid": "${DS_PG_METRICS}"
              },
              "format": "time_series",
              "group": [],
              "metricColumn": "none",
              "rawQuery": true,
              "rawSql": "select\n  $__timeGroup(time, $agg_interval),\n  (tag_data->>'table_full_name')::text as table_full_name,\n  avg((data->>'toast_size_b')::bigint) as \" \"\nfrom table_stats\nwhere dbname = '$dbname' and $__timeFilter(time)\n  and (data->>'toast_size_b')::bigint > 0\ngroup by 1, 2\norder by 1",
              "refId": "A",
              "select": [
                [
                  {
                    "params": [
                      "value"
                    ],
                    "type": "column"
                  }
                ]
              ],
              "timeColumn": "time",
              "where": [
                {
                  "name": "$__timeFilter",
                  "params": [],
                  "type": "macro"
                }
              ]
            }
          ],
          "title": "Toast Size",
          "type": "timeseries"
        },
        {
          "datasource": {
            "type": "postgres",
            "uid": "${DS_PG_METRICS}"
          },
          "fieldConfig": {
            "defaults": {
              "color": {
                "mode": "palette-classic"
              },
              "custom": {
                "axisLabel": "",
                "axisPlacement": "auto",
                "barAlignment": 0,
                "drawStyle": "line",
                "fillOpacity": 0,
                "gradientMode": "none",
                "hideFrom": {
                  "legend": false,
                  "tooltip": false,
                  "viz": false
                },
                "lineInterpolation": "linear",
                "lineWidth": 1,
                "pointSize": 5,
                "scaleDistribution": {
                  "type": "linear"
                },
                "showPoints": "never",
                "spanNulls": true,
                "stacking": {
                  "group": "A",
                  "mode": "none"
                },
                "thresholdsStyle": {
                  "mode": "off"
                }
              },
              "mappings": [],
              "thresholds": {
                "mode": "absolute",
                "steps": [
                  {
                    "color": "green",
                    "value": null
                  },
                  {
                    "color": "red",
                    "value": 80
                  }
                ]
              },
              "unit": "bytes"
            },
            "overrides": []
          },
          "gridPos": {
            "h": 8,
            "w": 24,
            "x": 0,
            "y": 61
          },
          "id": 30,
          "options": {
            "legend": {
              "calcs": [
                "lastNotNull"
              ],
              "displayMode": "table",
              "placement": "right",
              "sortBy": "Last *",
              "sortDesc": true
            },
            "tooltip": {
              "mode": "single",
              "sort": "none"
            }
          },
          "targets": [
            {
              "datasource": {
                "type": "postgres",
                "uid": "${DS_PG_METRICS}"
              },
              "format": "time_series",
              "group": [],
              "metricColumn": "none",
              "rawQuery": true,
              "rawSql": "select\n  $__timeGroup(time, $agg_interval),\n  (tag_data->>'table_full_name')::text as table_full_name,\n  avg((data->>'total_relation_size_b')::bigint) as \" \"\nfrom table_stats\nwhere dbname = '$dbname' and $__timeFilter(time)\n  and (data->>'total_relation_size_b')::bigint > 0\ngroup by 1, 2\norder by 1",
              "refId": "A",
              "select": [
                [
                  {
                    "params": [
                      "value"
                    ],
                    "type": "column"
                  }
                ]
              ],
              "timeColumn": "time",
              "where": [
                {
                  "name": "$__timeFilter",
                  "params": [],
                  "type": "macro"
                }
              ]
            }
          ],
          "title": "Total Relation Size",
          "type": "timeseries"
        }
      ],
      "title": "Sizes",
      "type": "row"
    }
  ],
  "refresh": "1m",
  "schemaVersion": 36,
  "style": "dark",
  "tags": [],
  "templating": {
    "list": [
      {
        "current": {},
        "datasource": {
          "type": "postgres",
          "uid": "${DS_PG_METRICS}"
        },
        "definition": "SELECT DISTINCT dbname FROM admin.all_distinct_dbname_metrics ORDER BY 1;",
        "hide": 0,
        "includeAll": false,
        "multi": false,
        "name": "dbname",
        "options": [],
        "query": "SELECT DISTINCT dbname FROM admin.all_distinct_dbname_metrics ORDER BY 1;",
        "refresh": 1,
        "regex": "",
        "skipUrlSync": false,
        "sort": 0,
        "type": "query"
      },
      {
        "auto": true,
        "auto_count": 30,
        "auto_min": "10s",
        "current": {
          "selected": false,
          "text": "1m",
          "value": "1m"
        },
        "hide": 0,
        "name": "agg_interval",
        "options": [
          {
            "selected": false,
            "text": "auto",
            "value": "$__auto_interval_agg_interval"
          },
          {
            "selected": false,
            "text": "10s",
            "value": "10s"
          },
          {
            "selected": true,
            "text": "1m",
            "value": "1m"
          },
          {
            "selected": false,
            "text": "5m",
            "value": "5m"
          },
          {
            "selected": false,
            "text": "1h",
            "value": "1h"
          }
        ],
        "query": "10s, 1m, 5m, 1h",
        "queryValue": "",
        "refresh": 2,
        "skipUrlSync": false,
        "type": "interval"
      }
    ]
  },
  "time": {
    "from": "now-1h",
    "to": "now"
  },
  "timepicker": {},
  "timezone": "",
  "title": "4. Table Statistics",
  "uid": "table-statistics",
  "version": 1,
  "weekStart": ""
}