{
  "__inputs": [
    {
      "name": "DS_PG_METRICS",
      "label": "PG metrics",
      "description": "",
      "type": "datasource",
      "pluginId": "postgres",
      "pluginName": "PostgreSQL"
    }
  ],
  "__elements": [],
  "__requires": [
    {
      "type": "grafana",
      "id": "grafana",
      "name": "Grafana",
      "version": "8.5.9"
    },
    {
      "type": "datasource",
      "id": "postgres",
      "name": "PostgreSQL",
      "version": "1.0.0"
    },
    {
      "type": "panel",
      "id": "table",
      "name": "Table",
      "version": ""
    },
    {
      "type": "panel",
      "id": "timeseries",
      "name": "Time series",
      "version": ""
    }
  ],
  "annotations": {
    "list": [
      {
        "builtIn": 1,
        "datasource": {
          "type": "grafana",
          "uid": "-- Grafana --"
        },
        "enable": true,
        "hide": true,
        "iconColor": "rgba(0, 211, 255, 1)",
        "name": "Annotations & Alerts",
        "target": {
          "limit": 100,
          "matchAny": false,
          "tags": [],
          "type": "dashboard"
        },
        "type": "dashboard"
      }
    ]
  },
  "editable": false,
  "fiscalYearStartMonth": 0,
  "graphTooltip": 0,
  "id": null,
  "iteration": 1660397400000,
  "links": [],
  "liveNow": false,
  "panels": [
    {
      "collapsed": false,
      "gridPos": {
        "h": 1,
        "w": 24,
        "x": 0,
        "y": 0
      },
      "id": 2,
      "panels": [],
      "type": "row"
    },
    {
      "datasource": {
        "type": "postgres",
        "uid": "${DS_PG_METRICS}"
      },
      "description": "",
      "fieldConfig": {
        "defaults": {
          "color": {
            "mode": "palette-classic"
          },
          "custom": {
            "axisLabel": "",
            "axisPlacement": "auto",
            "barAlignment": 0,
            "drawStyle": "line",
            "fillOpacity": 20,
            "gradientMode": "none",
            "hideFrom": {
              "legend": false,
              "tooltip": false,
              "viz": false
            },
            "lineInterpolation": "linear",
            "lineWidth": 1,
            "pointSize": 5,
            "scaleDistribution": {
              "type": "linear"
            },
            "showPoints": "never",
            "spanNulls": true,
            "stacking": {
              "group": "A",
              "mode": "none"
            },
            "thresholdsStyle": {
              "mode": "off"
            }
          },
          "mappings": [],
          "thresholds": {
            "mode": "absolute",
            "steps": [
              {
                "color": "green",
                "value": null
              },
              {
                "color": "red",
                "value": 80
              }
            ]
          },
          "unit": "short"
        },
        "overrides": []
      },
      "gridPos": {
        "h": 8,
        "w": 24,
        "x": 0,
        "y": 1
      },
      "id": 4,
      "options": {
        "legend": {
          "calcs": [
            "mean",
            "sum"
          ],
          "displayMode": "table",
          "placement": "right",
          "sortBy": "Total",
          "sortDesc": true
        },
        "tooltip": {
          "mode": "single",
          "sort": "none"
        }
      },
      "targets": [
        {
          "datasource": {
            "type": "postgres",
            "uid": "${DS_PG_METRICS}"
          },
          "format": "time_series",
          "group": [],
          "metricColumn": "none",
          "rawQuery": true,
          "rawSql": "select\n  $__timeGroup(time, $agg_interval),\n  '[' || table_name || '] - ' || index_name AS index,\n  avg((i - i_lag) / extract(epoch from time - time_lag)) as \" \"\nfrom (\n  select\n    (data->>'index_scans')::bigint as i, lag((data->>'index_scans')::bigint) over w as i_lag,\n    (tag_data->>'table_name')::text as table_name,\n    (tag_data->>'index_name')::text as index_name,\n    time, lag(time) over w as time_lag\n  from index_scans_not_unique\n  where dbname = '$dbname' and $__timeFilter(time)\n  window w as (partition by (tag_data->>'table_name')::text, (tag_data->>'index_name')::text order by time)\n) x\nwhere i > i_lag and time > time_lag\ngroup by 1, 2\norder by 1",
          "refId": "A",
          "select": [
            [
              {
                "params": [
                  "value"
                ],
                "type": "column"
              }
            ]
          ],
          "timeColumn": "time",
          "where": [
            {
              "name": "$__timeFilter",
              "params": [],
              "type": "macro"
            }
          ]
        }
      ],
      "title": "Index Scans - not unique indexes (1s rate)",
      "type": "timeseries"
    },
    {
      "datasource": {
        "type": "postgres",
        "uid": "${DS_PG_METRICS}"
      },
      "description": "Number of index scans initiated on this index",
      "fieldConfig": {
        "defaults": {
          "color": {
            "mode": "palette-classic"
          },
          "custom": {
            "axisLabel": "",
            "axisPlacement": "auto",
            "barAlignment": 0,
            "drawStyle": "line",
            "fillOpacity": 20,
            "gradientMode": "none",
            "hideFrom": {
              "legend": false,
              "tooltip": false,
              "viz": false
            },
            "lineInterpolation": "linear",
            "lineWidth": 1,
            "pointSize": 5,
            "scaleDistribution": {
              "type": "linear"
            },
            "showPoints": "never",
            "spanNulls": true,
            "stacking": {
              "group": "A",
              "mode": "none"
            },
            "thresholdsStyle": {
              "mode": "off"
            }
          },
          "mappings": [],
          "thresholds": {
            "mode": "absolute",
            "steps": [
              {
                "color": "green",
                "value": null
              },
              {
                "color": "red",
                "value": 80
              }
            ]
          },
          "unit": "short"
        },
        "overrides": []
      },
      "gridPos": {
        "h": 8,
        "w": 24,
        "x": 0,
        "y": 9
      },
      "id": 5,
      "options": {
        "legend": {
          "calcs": [
            "max",
            "mean",
            "lastNotNull"
          ],
          "displayMode": "table",
          "placement": "right",
          "sortBy": "Mean",
          "sortDesc": true
        },
        "tooltip": {
          "mode": "single",
          "sort": "none"
        }
      },
      "targets": [
        {
          "datasource": {
            "type": "postgres",
            "uid": "${DS_PG_METRICS}"
          },
          "format": "time_series",
          "group": [],
          "metricColumn": "none",
          "rawQuery": true,
          "rawSql": "select\n  $__timeGroup(time, $agg_interval),\n  '[' || table_name || '] - ' || index_name AS index,\n  avg((i - i_lag) / extract(epoch from time - time_lag)) as \" \"\nfrom (\n  select\n    (data->>'idx_scan')::bigint as i, lag((data->>'idx_scan')::bigint) over w as i_lag,\n    (tag_data->>'table_name')::text as table_name,\n    (tag_data->>'index_name')::text as index_name,\n    time, lag(time) over w as time_lag\n  from index_stats\n  where dbname = '$dbname' and $__timeFilter(time)\n  window w as (partition by (tag_data->>'table_name')::text, (tag_data->>'index_name')::text order by time)\n) x\nwhere i > i_lag and time > time_lag\ngroup by 1, 2\norder by 1",
          "refId": "A",
          "select": [
            [
              {
                "params": [
                  "value"
                ],
                "type": "column"
              }
            ]
          ],
          "timeColumn": "time",
          "where": [
            {
              "name": "$__timeFilter",
              "params": [],
              "type": "macro"
            }
          ]
        }
      ],
      "title": "Index Scans (idx_scan) (1s rate)",
      "type": "timeseries"
    },
    {
      "datasource": {
        "type": "postgres",
        "uid": "${DS_PG_METRICS}"
      },
      "description": "Number of index entries returned by scans on this index",
      "fieldConfig": {
        "defaults": {
          "color": {
            "mode": "palette-classic"
          },
          "custom": {
            "axisLabel": "",
            "axisPlacement": "auto",
            "barAlignment": 0,
            "drawStyle": "line",
            "fillOpacity": 20,
            "gradientMode": "none",
            "hideFrom": {
              "legend": false,
              "tooltip": false,
              "viz": false
            },
            "lineInterpolation": "linear",
            "lineWidth": 1,
            "pointSize": 5,
            "scaleDistribution": {
              "type": "linear"
            },
            "showPoints": "never",
            "spanNulls": true,
            "stacking": {
              "group": "A",
              "mode": "none"
            },
            "thresholdsStyle": {
              "mode": "off"
            }
          },
          "mappings": [],
          "thresholds": {
            "mode": "absolute",
            "steps": [
              {
                "color": "green",
                "value": null
              },
              {
                "color": "red",
                "value": 80
              }
            ]
          },
          "unit": "short"
        },
        "overrides": []
      },
      "gridPos": {
        "h": 8,
        "w": 24,
        "x": 0,
        "y": 17
      },
      "id": 6,
      "options": {
        "legend": {
          "calcs": [
            "max",
            "mean",
            "lastNotNull"
          ],
          "displayMode": "table",
          "placement": "right",
          "sortBy": "Mean",
          "sortDesc": true
        },
        "tooltip": {
          "mode": "single",
          "sort": "none"
        }
      },
      "targets": [
        {
          "datasource": {
            "type": "postgres",
            "uid": "${DS_PG_METRICS}"
          },
          "format": "time_series",
          "group": [],
          "metricColumn": "none",
          "rawQuery": true,
          "rawSql": "select\n  $__timeGroup(time, $agg_interval),\n  '[' || table_name || '] - ' || index_name AS index,\n  avg((i - i_lag) / extract(epoch from time - time_lag)) as \" \"\nfrom (\n  select\n    (data->>'idx_tup_read')::bigint as i, lag((data->>'idx_tup_read')::bigint) over w as i_lag,\n    (tag_data->>'table_name')::text as table_name,\n    (tag_data->>'index_name')::text as index_name,\n    time, lag(time) over w as time_lag\n  from index_stats\n  where dbname = '$dbname' and $__timeFilter(time)\n  window w as (partition by (tag_data->>'table_name')::text, (tag_data->>'index_name')::text order by time)\n) x\nwhere i > i_lag and time > time_lag\ngroup by 1, 2\norder by 1",
          "refId": "A",
          "select": [
            [
              {
                "params": [
                  "value"
                ],
                "type": "column"
              }
            ]
          ],
          "timeColumn": "time",
          "where": [
            {
              "name": "$__timeFilter",
              "params": [],
              "type": "macro"
            }
          ]
        }
      ],
      "title": "Returned by index scans (idx_tup_read) (1s rate)",
      "type": "timeseries"
    },
    {
      "datasource": {
        "type": "postgres",
        "uid": "${DS_PG_METRICS}"
      },
      "description": "Number of live table rows fetched by simple index scans using this index",
      "fieldConfig": {
        "defaults": {
          "color": {
            "mode": "palette-classic"
          },
          "custom": {
            "axisLabel": "",
            "axisPlacement": "auto",
            "barAlignment": 0,
            "drawStyle": "line",
            "fillOpacity": 20,
            "gradientMode": "none",
            "hideFrom": {
              "legend": false,
              "tooltip": false,
              "viz": false
            },
            "lineInterpolation": "linear",
            "lineWidth": 1,
            "pointSize": 5,
            "scaleDistribution": {
              "type": "linear"
            },
            "showPoints": "never",
            "spanNulls": true,
            "stacking": {
              "group": "A",
              "mode": "none"
            },
            "thresholdsStyle": {
              "mode": "off"
            }
          },
          "mappings": [],
          "thresholds": {
            "mode": "absolute",
            "steps": [
              {
                "color": "green",
                "value": null
              },
              {
                "color": "red",
                "value": 80
              }
            ]
          },
          "unit": "short"
        },
        "overrides": []
      },
      "gridPos": {
        "h": 8,
        "w": 24,
        "x": 0,
        "y": 25
      },
      "id": 7,
      "options": {
        "legend": {
          "calcs": [
            "max",
            "mean",
            "lastNotNull"
          ],
          "displayMode": "table",
          "placement": "right",
          "sortBy": "Mean",
          "sortDesc": true
        },
        "tooltip": {
          "mode": "single",
          "sort": "none"
        }
      },
      "targets": [
        {
          "datasource": {
            "type": "postgres",
            "uid": "${DS_PG_METRICS}"
          },
          "format": "time_series",
          "group": [],
          "metricColumn": "none",
          "rawQuery": true,
          "rawSql": "select\n  $__timeGroup(time, $agg_interval),\n  '[' || table_name || '] - ' || index_name AS index,\n  avg((i - i_lag) / extract(epoch from time - time_lag)) as \" \"\nfrom (\n  select\n    (data->>'idx_tup_fetch')::bigint as i, lag((data->>'idx_tup_fetch')::bigint) over w as i_lag,\n    (tag_data->>'table_name')::text as table_name,\n    (tag_data->>'index_name')::text as index_name,\n    time, lag(time) over w as time_lag\n  from index_stats\n  where dbname = '$dbname' and $__timeFilter(time)\n  window w as (partition by (tag_data->>'table_name')::text, (tag_data->>'index_name')::text order by time)\n) x\nwhere i > i_lag and time > time_lag\ngroup by 1, 2\norder by 1",
          "refId": "A",
          "select": [
            [
              {
                "params": [
                  "value"
                ],
                "type": "column"
              }
            ]
          ],
          "timeColumn": "time",
          "where": [
            {
              "name": "$__timeFilter",
              "params": [],
              "type": "macro"
            }
          ]
        }
      ],
      "title": "Fetched by index scans (idx_tup_fetch) (1s rate)",
      "type": "timeseries"
    },
    {
      "datasource": {
        "type": "postgres",
        "uid": "${DS_PG_METRICS}"
      },
      "description": "",
      "fieldConfig": {
        "defaults": {
          "color": {
            "mode": "palette-classic"
          },
          "custom": {
            "axisLabel": "",
            "axisPlacement": "auto",
            "barAlignment": 0,
            "drawStyle": "line",
            "fillOpacity": 0,
            "gradientMode": "none",
            "hideFrom": {
              "legend": false,
              "tooltip": false,
              "viz": false
            },
            "lineInterpolation": "linear",
            "lineWidth": 1,
            "pointSize": 5,
            "scaleDistribution": {
              "type": "linear"
            },
            "showPoints": "never",
            "spanNulls": true,
            "stacking": {
              "group": "A",
              "mode": "none"
            },
            "thresholdsStyle": {
              "mode": "off"
            }
          },
          "mappings": [],
          "thresholds": {
            "mode": "absolute",
            "steps": [
              {
                "color": "green",
                "value": null
              },
              {
                "color": "red",
                "value": 80
              }
            ]
          },
          "unit": "bytes"
        },
        "overrides": []
      },
      "gridPos": {
        "h": 8,
        "w": 24,
        "x": 0,
        "y": 33
      },
      "id": 8,
      "options": {
        "legend": {
          "calcs": [
            "lastNotNull"
          ],
          "displayMode": "table",
          "placement": "right",
          "sortBy": "Last *",
          "sortDesc": true
        },
        "tooltip": {
          "mode": "single",
          "sort": "none"
        }
      },
      "targets": [
        {
          "datasource": {
            "type": "postgres",
            "uid": "${DS_PG_METRICS}"
          },
          "format": "time_series",
          "group": [],
          "metricColumn": "none",
          "rawQuery": true,
          "rawSql": "select\n  $__timeGroup(time, $agg_interval),\n  '[' || table_name || '] - ' || index_name AS index,\n  avg(i) as \" \"\nfrom (\n  select\n    (data->>'index_size_b')::bigint as i,\n    (tag_data->>'table_name')::text as table_name,\n    (tag_data->>'index_name')::text as index_name,\n    time\n  from index_stats\n  where dbname = '$dbname' and $__timeFilter(time)\n) x\ngroup by 1, 2\norder by 1",
          "refId": "A",
          "select": [
            [
              {
                "params": [
                  "value"
                ],
                "type": "column"
              }
            ]
          ],
          "timeColumn": "time",
          "where": [
            {
              "name": "$__timeFilter",
              "params": [],
              "type": "macro"
            }
          ]
        }
      ],
      "title": "Index Size (all indexes)",
      "type": "timeseries"
    },
    {
      "collapsed": false,
      "gridPos": {
        "h": 1,
        "w": 24,
        "x": 0,
        "y": 41
      },
      "id": 10,
      "panels": [],
      "type": "row"
    },
    {
      "datasource": {
        "type": "postgres",
        "uid": "${DS_PG_METRICS}"
      },
      "description": "",
      "fieldConfig": {
        "defaults": {
          "color": {
            "mode": "thresholds"
          },
          "custom": {
            "align": "auto",
            "displayMode": "auto",
            "inspect": false
          },
          "mappings": [],
          "thresholds": {
            "mode": "absolute",
            "steps": [
              {
                "color": "green",
                "value": null
              },
              {
                "color": "red",
                "value": 80
              }
            ]
          },
          "unit": "short"
        },
        "overrides": [
          {
            "matcher": {
              "id": "byName",
              "options": "index_size"
            },
            "properties": [
              {
                "id": "unit",
                "value": "bytes"
              }
            ]
          },
          {
            "matcher": {
              "id": "byName",
              "options": "index_full_name"
            },
            "properties": [
              {
                "id": "custom.width",
                "value": 600
              }
            ]
          },
          {
            "matcher": {
              "id": "byName",
              "options": "table_full_name"
            },
            "properties": [
              {
                "id": "custom.width",
                "value": 400
              }
            ]
          }
        ]
      },
      "gridPos": {
        "h": 9,
        "w": 24,
        "x": 0,
        "y": 42
      },
      "id": 12,
      "options": {
        "footer": {
          "enablePagination": true,
          "fields": "",
          "reducer": [
            "sum"
          ],
          "show": false
        },
        "showHeader": true,
        "sortBy": [
          {
            "desc": true,
            "displayName": "index_size"
          }
        ]
      },
      "pluginVersion": "8.5.9",
      "targets": [
        {
          "datasource": {
            "type": "postgres",
            "uid": "${DS_PG_METRICS}"
          },
          "format": "table",
          "group": [],
          "metricColumn": "none",
          "rawQuery": true,
          "rawSql": "select\n    table_full_name,\n    index_full_name,\n    last(index_size_b, time) as \"index_size\",\n    last(idx_scan, time) as \"idx_scan\"\nfrom (\n  select\n    (data->>'index_size_b')::bigint as index_size_b,\n    (data->>'idx_scan')::bigint as idx_scan,\n    (tag_data->>'table_full_name')::text as table_full_name,\n    (tag_data->>'index_full_name')::text as index_full_name,\n    time\n  from index_stats\n  where dbname = '$dbname' and $__timeFilter(time)  \n) x\nwhere index_size_b > 0\ngroup by 1, 2\norder by 3 desc\nlimit 10",
          "refId": "A",
          "select": [
            [
              {
                "params": [
                  "value"
                ],
                "type": "column"
              }
            ]
          ],
          "timeColumn": "time",
          "where": [
            {
              "name": "$__timeFilter",
              "params": [],
              "type": "macro"
            }
          ]
        }
      ],
      "title": "Top 10 biggest indexes",
      "type": "table"
    },
    {
      "datasource": {
        "type": "postgres",
        "uid": "${DS_PG_METRICS}"
      },
      "description": "NB! Before dropping indexes make sure they are not used on replicas, if having any.",
      "fieldConfig": {
        "defaults": {
          "color": {
            "mode": "thresholds"
          },
          "custom": {
            "align": "auto",
            "displayMode": "auto",
            "inspect": false
          },
          "mappings": [],
          "thresholds": {
            "mode": "absolute",
            "steps": [
              {
                "color": "green",
                "value": null
              },
              {
                "color": "red",
                "value": 80
              }
            ]
          },
          "unit": "short"
        },
        "overrides": [
          {
            "matcher": {
              "id": "byName",
              "options": "table_full_name"
            },
            "properties": [
              {
                "id": "custom.width",
                "value": 400
              }
            ]
          },
          {
            "matcher": {
              "id": "byName",
              "options": "index_full_name"
            },
            "properties": [
              {
                "id": "custom.width",
                "value": 600
              }
            ]
          },
          {
            "matcher": {
              "id": "byName",
              "options": "index_size"
            },
            "properties": [
              {
                "id": "unit",
                "value": "bytes"
              }
            ]
          }
        ]
      },
      "gridPos": {
        "h": 9,
        "w": 24,
        "x": 0,
        "y": 51
      },
      "id": 13,
      "options": {
        "footer": {
          "enablePagination": true,
          "fields": "",
          "reducer": [
            "sum"
          ],
          "show": false
        },
        "showHeader": true,
        "sortBy": [
          {
            "desc": true,
            "displayName": "index_size"
          }
        ]
      },
      "pluginVersion": "8.5.9",
      "targets": [
        {
          "datasource": {
            "type": "postgres",
            "uid": "${DS_PG_METRICS}"
          },
          "format": "table",
          "group": [],
          "metricColumn": "none",
          "rawQuery": true,
          "rawSql": "select\n    table_full_name,\n    index_full_name,\n    last(index_size_b, time) as \"index_size\",\n    last(idx_scan, time) as \"idx_scan\"\nfrom (\n  select\n    (data->>'index_size_b')::bigint as index_size_b,\n    (data->>'idx_scan')::bigint as idx_scan,\n    (data->>'is_pk_int')::int2 as is_pk,\n    (tag_data->>'table_full_name')::text as table_full_name,\n    (tag_data->>'index_full_name')::text as index_full_name,\n    time, dbname\n  from index_stats\n  where dbname = '$dbname' and $__timeFilter(time)\n) x\nwhere is_pk = 0\ngroup by 1, 2\nhaving last(idx_scan, time) = 0\norder by 2 desc",
          "refId": "A",
          "select": [
            [
              {
                "params": [
                  "value"
                ],
                "type": "column"
              }
            ]
          ],
          "timeColumn": "time",
          "where": [
            {
              "name": "$__timeFilter",
              "params": [],
              "type": "macro"
            }
          ]
        }
      ],
      "title": "Unused indexes",
      "type": "table"
    },
    {
      "datasource": {
        "type": "postgres",
        "uid": "${DS_PG_METRICS}"
      },
      "description": "",
      "fieldConfig": {
        "defaults": {
          "color": {
            "mode": "thresholds"
          },
          "custom": {
            "align": "auto",
            "displayMode": "auto",
            "inspect": false
          },
          "mappings": [],
          "thresholds": {
            "mode": "absolute",
            "steps": [
              {
                "color": "green",
                "value": null
              },
              {
                "color": "red",
                "value": 80
              }
            ]
          },
          "unit": "short"
        },
        "overrides": [
          {
            "matcher": {
              "id": "byName",
              "options": "max_index_size"
            },
            "properties": [
              {
                "id": "unit",
                "value": "bytes"
              }
            ]
          },
          {
            "matcher": {
              "id": "byName",
              "options": "index_def"
            },
            "properties": [
              {
                "id": "custom.width",
                "value": 600
              }
            ]
          },
          {
            "matcher": {
              "id": "byName",
              "options": "table_full_name"
            },
            "properties": [
              {
                "id": "custom.width",
                "value": 400
              }
            ]
          }
        ]
      },
      "gridPos": {
        "h": 9,
        "w": 24,
        "x": 0,
        "y": 60
      },
      "id": 14,
      "options": {
        "footer": {
          "enablePagination": true,
          "fields": "",
          "reducer": [
            "sum"
          ],
          "show": false
        },
        "showHeader": true,
        "sortBy": [
          {
            "desc": true,
            "displayName": "count"
          }
        ]
      },
      "pluginVersion": "8.5.9",
      "targets": [
        {
          "datasource": {
            "type": "postgres",
            "uid": "${DS_PG_METRICS}"
          },
          "format": "table",
          "group": [],
          "metricColumn": "none",
          "rawQuery": true,
          "rawSql": "select\n    table_full_name,\n    max(index_def) as \"index_def\",\n    max(index_size_b) as \"max_index_size\",\n    count(distinct index_full_name_val) as \"count\"\nfrom (\n  select\n    (data->>'index_size_b')::bigint as index_size_b,\n    (data->>'index_def')::text as index_def,\n    (data->>'index_full_name_val')::text as index_full_name_val,\n    (tag_data->>'index_def_hash')::text as index_def_hash,\n    (tag_data->>'table_full_name')::text as table_full_name,\n    (tag_data->>'index_full_name')::text as index_full_name\n  from index_stats\n  where dbname = '$dbname' and $__timeFilter(time)\n) x\ngroup by table_full_name, index_def_hash\nhaving count(distinct index_full_name_val) > 1\norder by 4 desc",
          "refId": "A",
          "select": [
            [
              {
                "params": [
                  "value"
                ],
                "type": "column"
              }
            ]
          ],
          "timeColumn": "time",
          "where": [
            {
              "name": "$__timeFilter",
              "params": [],
              "type": "macro"
            }
          ]
        }
      ],
      "title": "Duplicate indexes",
      "type": "table"
    },
    {
      "datasource": {
        "type": "postgres",
        "uid": "${DS_PG_METRICS}"
      },
      "description": "",
      "fieldConfig": {
        "defaults": {
          "color": {
            "mode": "thresholds"
          },
          "custom": {
            "align": "auto",
            "displayMode": "auto",
            "inspect": false
          },
          "mappings": [],
          "thresholds": {
            "mode": "absolute",
            "steps": [
              {
                "color": "green",
                "value": null
              },
              {
                "color": "red",
                "value": 80
              }
            ]
          },
          "unit": "short"
        },
        "overrides": [
          {
            "matcher": {
              "id": "byName",
              "options": "max_index_size"
            },
            "properties": [
              {
                "id": "unit",
                "value": "bytes"
              }
            ]
          },
          {
            "matcher": {
              "id": "byName",
              "options": "table_full_name"
            },
            "properties": [
              {
                "id": "custom.width",
                "value": 400
              }
            ]
          },
          {
            "matcher": {
              "id": "byName",
              "options": "index_full_name"
            },
            "properties": [
              {
                "id": "custom.width",
                "value": 600
              }
            ]
          }
        ]
      },
      "gridPos": {
        "h": 9,
        "w": 24,
        "x": 0,
        "y": 69
      },
      "id": 15,
      "options": {
        "footer": {
          "enablePagination": true,
          "fields": "",
          "reducer": [
            "sum"
          ],
          "show": false
        },
        "showHeader": true,
        "sortBy": []
      },
      "pluginVersion": "8.5.9",
      "targets": [
        {
          "datasource": {
            "type": "postgres",
            "uid": "${DS_PG_METRICS}"
          },
          "format": "table",
          "group": [],
          "metricColumn": "none",
          "rawQuery": true,
          "rawSql": "select\n    table_full_name,\n    index_full_name,\n    last(index_size_b, time) as \"index_size\"\nfrom (\n  select\n    (data->>'index_size_b')::bigint as index_size_b,\n    (data->>'is_invalid_int')::int as is_invalid_int,\n    (tag_data->>'table_full_name')::text as table_full_name,\n    (tag_data->>'index_full_name')::text as index_full_name,\n    time\n  from index_stats\n  where dbname = '$dbname' and $__timeFilter(time)  \n) x\ngroup by 1, 2\nhaving last(is_invalid_int, time) = 1\norder by 3 desc",
          "refId": "A",
          "select": [
            [
              {
                "params": [
                  "value"
                ],
                "type": "column"
              }
            ]
          ],
          "timeColumn": "time",
          "where": [
            {
              "name": "$__timeFilter",
              "params": [],
              "type": "macro"
            }
          ]
        }
      ],
      "title": "Invalid indexes",
      "type": "table"
    }
  ],
  "refresh": "1m",
  "schemaVersion": 36,
  "style": "dark",
  "tags": [],
  "templating": {
    "list": [
      {
        "current": {},
        "datasource": {
          "type": "postgres",
          "uid": "${DS_PG_METRICS}"
        },
        "definition": "SELECT DISTINCT dbname FROM admin.all_distinct_dbname_metrics ORDER BY 1;",
        "hide": 0,
        "includeAll": false,
        "multi": false,
        "name": "dbname",
        "options": [],
        "query": "SELECT DISTINCT dbname FROM admin.all_distinct_dbname_metrics ORDER BY 1;",
        "refresh": 1,
        "regex": "",
        "skipUrlSync": false,
        "sort": 0,
        "type": "query"
      },
      {
        "auto": true,
        "auto_count": 30,
        "auto_min": "10s",
        "current": {
          "selected": false,
          "text": "1m",
          "value": "1m"
        },
        "hide": 0,
        "name": "agg_interval",
        "options": [
          {
            "selected": false,
            "text": "auto",
            "value": "$__auto_interval_agg_interval"
          },
          {
            "selected": false,
            "text": "10s",
            "value": "10s"
          },
          {
            "selected": true,
            "text": "1m",
            "value": "1m"
          },
          {
            "selected": false,
            "text": "5m",
            "value": "5m"
          },
          {
            "selected": false,
            "text": "1h",
            "value": "1h"
          }
        ],
        "query": "10s, 1m, 5m, 1h",
        "queryValue": "",
        "refresh": 2,
        "skipUrlSync": false,
        "type": "interval"
      }
    ]
  },
  "time": {
    "from": "now-1h",
    "to": "now"
  },
  "timepicker": {},
  "timezone": "",
  "title": "5. Index overview",
  "uid": "index-overview",
  "version": 1,
  "weekStart": ""
}